{
    "$schema": "http://adaptivecards.io/schemas/adaptive-card.json",
    "type": "AdaptiveCard",
    "version": "1.0",
    "body": [
      {
        "type": "Image",
        "url": "https://bot2.azurewebsites.net/assets/icon.png",
        "size": "stretch"
      },
      {
        "type": "TextBlock",
        "spacing": "medium",
        "size": "default",
        "weight": "bolder",
        "text": "Welcome to Bot_for_kids",
        "wrap": true,
        "maxLines": 0
      },
      {
        "type": "TextBlock",
        "size": "default",
        "isSubtle": "yes",
        "text": "Hello, nice to meet you!",
        "wrap": true,
        "maxLines": 0
      }
    ],
    "actions": [
      {
        "type": "Action.OpenUrl",
        "title": "Learn more about Yo Teams",
        "url": "https://aka.ms/yoteams"
      },
      {
        "type": "Action.OpenUrl",
        "title": "Bot_for_kids",
        "url": "https://bot2.azurewebsites.net"
      }
    ]
  }